[gd_scene load_steps=4 format=2]

[ext_resource path="res://icon.png" type="Texture" id=1]
[ext_resource path="res://Projectile.gd" type="Script" id=2]

[sub_resource type="RectangleShape2D" id=1]

[node name="Projectile" type="Node2D"]
script = ExtResource( 2 )
__meta__ = {
"_edit_group_": true
}

[node name="Sprite" type="Sprite" parent="."]
modulate = Color( 1, 0.52549, 0.0235294, 1 )
scale = Vector2( 0.3, 0.1 )
texture = ExtResource( 1 )

[node name="Hitbox" type="Area2D" parent="."]

[node name="HitboxRect" type="CollisionShape2D" parent="Hitbox"]
shape = SubResource( 1 )

[connection signal="body_entered" from="Hitbox" to="." method="_on_Hitbox_body_entered"]
